<svg width="32" height="32" viewBox="0 0 32 32" fill="none" xmlns="http://www.w3.org/2000/svg">
<path d="M28 28V15" stroke="#38393B" stroke-width="2" stroke-linecap="round" stroke-linejoin="round"/>
<path d="M4 15V28" stroke="#38393B" stroke-width="2" stroke-linecap="round" stroke-linejoin="round"/>
<path d="M23.9044 3H8.09567C6.7338 3 5.5038 3.75 4.97505 4.90375L2.2688 10.8125C1.35755 12.8006 2.87067 15.0531 5.21817 15.125H5.34317C7.30567 15.125 8.8963 13.5513 8.8963 11.8606C8.8963 13.5481 10.4875 15.125 12.45 15.125C14.4125 15.125 16 13.6638 16 11.8606C16 13.5481 17.5907 15.125 19.5532 15.125C21.5157 15.125 23.1069 13.6638 23.1069 11.8606C23.1069 13.6638 24.6975 15.125 26.66 15.125H26.7819C29.1294 15.0519 30.6425 12.7994 29.7313 10.8125L27.025 4.90375C26.4963 3.75 25.2663 3 23.9044 3Z" stroke="#38393B" stroke-width="2" stroke-linecap="round" stroke-linejoin="round"/>
<path d="M2 29H30" stroke="#38393B" stroke-width="2" stroke-linecap="round" stroke-linejoin="round"/>
<path d="M8.5 18H13.5C13.8978 18 14.2794 18.158 14.5607 18.4393C14.842 18.7206 15 19.1022 15 19.5V25H7V19.5C7 19.1022 7.15804 18.7206 7.43934 18.4393C7.72064 18.158 8.10218 18 8.5 18Z" stroke="#38393B" stroke-width="2" stroke-linecap="round" stroke-linejoin="round"/>
<path d="M18 29V19.5C18 19.1022 18.158 18.7206 18.4393 18.4393C18.7206 18.158 19.1022 18 19.5 18H23.5C23.8978 18 24.2794 18.158 24.5607 18.4393C24.842 18.7206 25 19.1022 25 19.5V29" stroke="#38393B" stroke-width="2" stroke-linecap="round" stroke-linejoin="round"/>
</svg>
